EDA_peer.knit
…
The distribution is strongly shifted to the right. The bar graph shows us that many new houses have been built recently. The location seems to be multimodal with its peak around buildings 30-50 years old, and the oldest house is about 140 years old.

The mantra in real estate is Location, Location, Location! Make a graphical display that relates a home price to its neighborhood in Ames, Iowa. Which summary statistics are most appropriate to use for determining the most expensive, least expensive, and most heterogeneous (having the most variation in housing price) neighborhoods? Report which neighborhoods these are based on the summary statistics of your choice. Report the value of your chosen summary statistics for these neighborhoods.

ames_loc <- ames_train %>%
  dplyr::select(price, Neighborhood) %>%
  group_by(Neighborhood) %>%
  summarise(median = median(price), max = max(price), min = min(price), sd = sd(price))
print(arrange(ames_loc, desc(median)))

## # A tibble: 27 x 5
##    Neighborhood  median    max    min      sd
##    <fct>          <dbl>  <int>  <int>   <dbl>
##  1 StoneBr      340692. 591587 180000 123459.
##  2 NridgHt      336860  615000 173000 105089.
##  3 NoRidge      290000  405000 235000  35889.
##  4 GrnHill      280000  330000 230000  70711.
##  5 Timber       232500  425000 175000  84030.
##  6 Somerst      221650  468000 139000  65199.
##  7 Greens       212625  214000 155000  29063.
##  8 Veenker      205750  385000 150000  72545.
##  9 Crawfor      205000  392500  96500  71268.
## 10 CollgCr      195800  475000 110000  52786.
## # ... with 17 more rows
…
